Command line:
   KP_unConv_sh_KP_unConv_sh_sch_tb_isim_beh.exe
     -simmode  gui
     -simrunnum  0
     -socket  54270

Wed Dec 13 12:35:18 2017


 Elaboration Time: 0.140625 sec

 Current Memory Usage: 365.294 Meg

 Total Signals          : 245
 Total Nets             : 3862
 Total Signal Drivers   : 178
 Total Blocks           : 13
 Total Primitive Blocks : 11
 Total Processes        : 171
 Total Traceable Variables  : 17
 Total Scalar Nets and Variables : 4365

 Total Simulation Time: 0.390625 sec

 Current Memory Usage: 365.294 Meg

Wed Dec 13 12:37:36 2017

